R para Ciencias Sociales
…
5.6.1 La base de datos.

La base de datos primaria sobre la que trabajaremos es elaborada por el Sistema Nacional de Información Municipal y está disponible en formato .csv en http://www.snim.rami.gob.mx/

Trabajaremos especialmente con dos variables, el género de las y los presidentes municipales y el partido político al que representan.

#Importación de la base de datos. 
library(stringr)
presidentes_municipales <- 
  read_csv("./datos/presidentes_municipales.csv", col_types = cols(ap_materno = col_character(), fecha_actualizacion = col_character(), pdo_gob_ini = col_character()))

presidentes_municipales

## # A tibble: 2,389 x 19
##    estado  municipio  id_estado id_municipio nombre  ap_paterno ap_materno
##    <chr>   <chr>          <int>        <int> <chr>   <chr>      <chr>     
##  1 Aguasc… Aguascali…         1            1 MARIA … JIMENEZ    ESQUIVEL  
##  2 Aguasc… Asientos           1            2 LORENZ… CARRILLO   LARA      
##  3 Aguasc… Calvillo           1            3 FRANCI… LUEVANO    MARTINEZ  
##  4 Aguasc… Cosío              1            4 JUAN M… VILLALPAN… ADAME     
##  5 Aguasc… Jesús Mar…         1            5 NOEL    MATA       ATILANO   
##  6 Aguasc… Pabellón …         1            6 CUAUHT… ESCOBEDO   TEJEDA    
##  7 Aguasc… Rincón de…         1            7 FRANCI… RIVERA     LUEVANO   
##  8 Aguasc… San José …         1            8 MARIA … LOPEZ      GONZALEZ  
##  9 Aguasc… Tepezalá           1            9 OMAR    ISRAEL     CAMARILLO 
## 10 Aguasc… El Llano           1           10 RAMIRO  SALAS      PIZAÑA    
## # ... with 2,379 more rows, and 12 more variables: sexo <chr>,
## #   email_oficial <chr>, partido <chr>, descripcion <chr>,
## #   integrantes <chr>, pdo_gob_ini <chr>, pdo_gob_fin <chr>,
## #   direccion <chr>, pag_web <chr>, telefono <chr>, fax <chr>,
## #   fecha_actualizacion <chr>
…
